{
  "project_info": {
    "project_number": "800929280113",
    "project_id": "premiumapps-ddc38",
    "storage_bucket": "premiumapps-ddc38.appspot.com"
  },
  "client": [
    {
      "client_info": {
        "mobilesdk_app_id": "1:800929280113:android:b41c9f89d9650557f06bd0",
        "android_client_info": {
          "package_name": "com.crime.audiobook.reader.focus"
        }
      },
      "oauth_client": [
        {
          "client_id": "800929280113-eh1q656386levl9blenag5ph1bq098la.apps.googleusercontent.com",
          "client_type": 3
        }
      ],
      "api_key": [
        {
          "current_key": "AIzaSyBii9K0TwMBFLKflYjQAFUShjpSQh2zymg"
        }
      ],
      "services": {
        "appinvite_service": {
          "other_platform_oauth_client": [
            {
              "client_id": "800929280113-eh1q656386levl9blenag5ph1bq098la.apps.googleusercontent.com",
              "client_type": 3
            },
            {
              "client_id": "800929280113-e33dnia8ie6foa3sv6n3dtnnick6rslr.apps.googleusercontent.com",
              "client_type": 2,
              "ios_info": {
                "bundle_id": "com.dhyana.meditation.ios"
              }
            }
          ]
        }
      }
    },
    {
      "client_info": {
        "mobilesdk_app_id": "1:800929280113:android:af29f9e4c9a49893f06bd0",
        "android_client_info": {
          "package_name": "com.detective.audiobook.reader.focus"
        }
      },
      "oauth_client": [
        {
          "client_id": "800929280113-eh1q656386levl9blenag5ph1bq098la.apps.googleusercontent.com",
          "client_type": 3
        }
      ],
      "api_key": [
        {
          "current_key": "AIzaSyBii9K0TwMBFLKflYjQAFUShjpSQh2zymg"
        }
      ],
      "services": {
        "appinvite_service": {
          "other_platform_oauth_client": [
            {
              "client_id": "800929280113-eh1q656386levl9blenag5ph1bq098la.apps.googleusercontent.com",
              "client_type": 3
            },
            {
              "client_id": "800929280113-e33dnia8ie6foa3sv6n3dtnnick6rslr.apps.googleusercontent.com",
              "client_type": 2,
              "ios_info": {
                "bundle_id": "com.dhyana.meditation.ios"
              }
            }
          ]
        }
      }
    },
    {
      "client_info": {
        "mobilesdk_app_id": "1:800929280113:android:954b5b502c864418f06bd0",
        "android_client_info": {
          "package_name": "com.dhyana.meditation.healing.binaural.beats"
        }
      },
      "oauth_client": [
        {
          "client_id": "800929280113-eh1q656386levl9blenag5ph1bq098la.apps.googleusercontent.com",
          "client_type": 3
        }
      ],
      "api_key": [
        {
          "current_key": "AIzaSyBii9K0TwMBFLKflYjQAFUShjpSQh2zymg"
        }
      ],
      "services": {
        "appinvite_service": {
          "other_platform_oauth_client": [
            {
              "client_id": "800929280113-eh1q656386levl9blenag5ph1bq098la.apps.googleusercontent.com",
              "client_type": 3
            },
            {
              "client_id": "800929280113-e33dnia8ie6foa3sv6n3dtnnick6rslr.apps.googleusercontent.com",
              "client_type": 2,
              "ios_info": {
                "bundle_id": "com.dhyana.meditation.ios"
              }
            }
          ]
        }
      }
    }
  ],
  "configuration_version": "1"
}